<svg width="30" height="30" viewBox="0 0 30 30" fill="none" xmlns="http://www.w3.org/2000/svg">
<g clip-path="url(#clip0)">
<path d="M0.621432 15.9738L28.4779 28.8306C28.9215 29.0321 29.4507 28.9121 29.7593 28.5307C30.07 28.1492 30.0807 27.6071 29.785 27.215L20.6245 15.001L29.785 2.787C30.0807 2.39487 30.07 1.85059 29.7614 1.47132C29.5536 1.21204 29.2429 1.07275 28.9279 1.07275C28.7757 1.07275 28.6236 1.10489 28.48 1.17132L0.623575 14.0281C0.242154 14.2039 1.84201e-05 14.5831 1.83836e-05 15.001C1.83471e-05 15.4188 0.242156 15.7981 0.621432 15.9738Z" fill="#647A88"/>
</g>
<defs>
<clipPath id="clip0">
<rect x="30" y="30" width="30" height="30" rx="2" transform="rotate(-180 30 30)" fill="white"/>
</clipPath>
</defs>
</svg>
