<?xml version="1.0" encoding="UTF-8" standalone="no"?>
<svg
   xmlns:dc="http://purl.org/dc/elements/1.1/"
   xmlns:cc="http://creativecommons.org/ns#"
   xmlns:rdf="http://www.w3.org/1999/02/22-rdf-syntax-ns#"
   xmlns:svg="http://www.w3.org/2000/svg"
   xmlns="http://www.w3.org/2000/svg"
   xmlns:sodipodi="http://sodipodi.sourceforge.net/DTD/sodipodi-0.dtd"
   xmlns:inkscape="http://www.inkscape.org/namespaces/inkscape"
   width="30"
   height="30"
   viewBox="0 0 30 30"
   fill="none"
   version="1.1"
   id="svg11"
   sodipodi:docname="arrow-right-white.svg"
   inkscape:version="0.92.4 (5da689c313, 2019-01-14)">
  <metadata
     id="metadata15">
    <rdf:RDF>
      <cc:Work
         rdf:about="">
        <dc:format>image/svg+xml</dc:format>
        <dc:type
           rdf:resource="http://purl.org/dc/dcmitype/StillImage" />
      </cc:Work>
    </rdf:RDF>
  </metadata>
  <sodipodi:namedview
     pagecolor="#ffffff"
     bordercolor="#666666"
     borderopacity="1"
     objecttolerance="10"
     gridtolerance="10"
     guidetolerance="10"
     inkscape:pageopacity="0"
     inkscape:pageshadow="2"
     inkscape:window-width="888"
     inkscape:window-height="480"
     id="namedview13"
     showgrid="false"
     inkscape:zoom="7.8666667"
     inkscape:cx="15"
     inkscape:cy="15"
     inkscape:window-x="0"
     inkscape:window-y="0"
     inkscape:window-maximized="0"
     inkscape:current-layer="svg11" />
  <g
     clip-path="url(#clip0)"
     id="g4"
     style="fill:#ffffff">
    <path
       d="M29.3786 14.0262L1.52211 1.16935C1.07855 0.967931 0.549276 1.08793 0.240712 1.46935C-0.0699945 1.85077 -0.0807085 2.3929 0.214998 2.78503L9.37549 14.999L0.214998 27.213C-0.0807085 27.6051 -0.0699945 28.1494 0.238569 28.5287C0.446421 28.788 0.757128 28.9272 1.07212 28.9272C1.22426 28.9272 1.3764 28.8951 1.51997 28.8287L29.3764 15.9718C29.7578 15.7961 30 15.4169 30 14.999C30 14.5812 29.7578 14.2019 29.3786 14.0262Z"
       fill="#647A88"
       id="path2"
       style="fill:#ffffff" />
  </g>
  <defs
     id="defs9">
    <clipPath
       id="clip0">
      <rect
         width="30"
         height="30"
         rx="2"
         fill="white"
         id="rect6" />
    </clipPath>
  </defs>
</svg>
