<svg width="17" height="16" viewBox="0 0 17 16" fill="none" xmlns="http://www.w3.org/2000/svg">
<g clip-path="url(#clip0)">
<path d="M16.9124 8.12356C16.9639 7.9989 16.9352 7.85547 16.8397 7.76022L10.8397 1.76022C10.7073 1.63231 10.4963 1.636 10.3684 1.7684C10.2437 1.89759 10.2437 2.10237 10.3684 2.23153L15.7997 7.66287H1.27109C1.08699 7.6629 0.937744 7.81215 0.937744 7.99625C0.937744 8.18034 1.08699 8.32959 1.27109 8.32959H15.7997L10.3691 13.7602C10.2367 13.8882 10.233 14.0992 10.3609 14.2316C10.4888 14.364 10.6998 14.3677 10.8322 14.2398C10.835 14.2371 10.8377 14.2344 10.8404 14.2316L16.8404 8.23159C16.8712 8.20062 16.8957 8.16393 16.9124 8.12356Z" fill="white"/>
<path d="M10.6044 14.3296C10.4204 14.3299 10.2709 14.1809 10.2705 13.9968C10.2704 13.9081 10.3056 13.8229 10.3684 13.7602L16.1331 7.99626L10.3684 2.23226C10.2405 2.09985 10.2442 1.88882 10.3766 1.76091C10.5058 1.63616 10.7106 1.63616 10.8398 1.76091L16.8398 7.76091C16.9699 7.89107 16.9699 8.10207 16.8398 8.23226L10.8398 14.2323C10.7773 14.2946 10.6927 14.3296 10.6044 14.3296Z" fill="white"/>
<path d="M16.6044 8.32955H1.27109C1.08699 8.32955 0.937744 8.18034 0.937744 7.99624C0.937744 7.81215 1.08699 7.6629 1.27109 7.6629H16.6044C16.7885 7.6629 16.9378 7.81215 16.9378 7.99624C16.9377 8.18034 16.7885 8.32955 16.6044 8.32955Z" fill="white"/>
</g>
<defs>
<clipPath id="clip0">
<rect width="16" height="16" fill="white" transform="translate(0.937744)"/>
</clipPath>
</defs>
</svg>
