<?xml version="1.0" encoding="iso-8859-1"?>
<!-- Generator: Adobe Illustrator 19.0.0, SVG Export Plug-In . SVG Version: 6.00 Build 0)  -->
<svg version="1.1" id="Capa_1" xmlns="http://www.w3.org/2000/svg" xmlns:xlink="http://www.w3.org/1999/xlink" x="0px" y="0px"
	 viewBox="0 0 368 368" style="enable-background:new 0 0 368 368;" xml:space="preserve">
<g>
	<g>
		<path fill="#ba8373" d="M367.384,164.944c-0.408-0.984-0.992-1.864-1.736-2.608l-63.992-63.992C300.16,96.84,298.128,96,296,96h-76.688
			L192,68.688V64h72c4.424,0,8-3.584,8-8V8c0-4.416-3.576-8-8-8h-80c-4.424,0-8,3.584-8,8v60.688L148.688,96H72
			c-2.128,0-4.16,0.84-5.656,2.344L2.352,162.336c-0.744,0.736-1.328,1.624-1.736,2.608C0.216,165.92,0,166.96,0,168v192
			c0,4.416,3.576,8,8,8h352c4.424,0,8-3.584,8-8V168C368,166.96,367.792,165.92,367.384,164.944z M192,16h64v32h-64V16z M48,352H16
			v-80h32V352z M96,352H64v-80h32V352z M96,256H16v-80h80V256z M96,152v8H27.312l48-48h57.376l-34.344,34.344
			C96.84,147.84,96,149.88,96,152z M112,176h32v48h-32V176z M208,352h-48v-40c0-13.232,10.768-24,24-24s24,10.768,24,24V352z
			 M256,352h-32v-40c0-22.056-17.944-40-40-40c-22.056,0-40,17.944-40,40v40h-32V240h144V352z M160,224v-48h48v48H160z M256,224h-32
			v-48h32V224z M256,160H112v-4.688l45.648-45.648c0.008-0.008,0.008-0.008,0.016-0.016L184,83.312l26.336,26.336
			c0.008,0.008,0.008,0.008,0.016,0.016L256,155.312V160z M235.312,112h57.376l48,48H272v-8c0-2.12-0.84-4.16-2.344-5.656
			L235.312,112z M304,352h-32v-80h32V352z M352,352h-32v-80h32V352z M352,256h-80v-80h80V256z"/>
	</g>
</g>
<g>
</g>
<g>
</g>
<g>
</g>
<g>
</g>
<g>
</g>
<g>
</g>
<g>
</g>
<g>
</g>
<g>
</g>
<g>
</g>
<g>
</g>
<g>
</g>
<g>
</g>
<g>
</g>
<g>
</g>
</svg>
