<?xml version="1.0" encoding="UTF-8" standalone="no"?>
<!-- Generator: Adobe Illustrator 19.0.0, SVG Export Plug-In . SVG Version: 6.00 Build 0)  -->

<svg
   xmlns:dc="http://purl.org/dc/elements/1.1/"
   xmlns:cc="http://creativecommons.org/ns#"
   xmlns:rdf="http://www.w3.org/1999/02/22-rdf-syntax-ns#"
   xmlns:svg="http://www.w3.org/2000/svg"
   xmlns="http://www.w3.org/2000/svg"
   xmlns:sodipodi="http://sodipodi.sourceforge.net/DTD/sodipodi-0.dtd"
   xmlns:inkscape="http://www.inkscape.org/namespaces/inkscape"
   version="1.1"
   id="Capa_1"
   x="0px"
   y="0px"
   viewBox="0 0 49.999999 35.632007"
   xml:space="preserve"
   sodipodi:docname="wifi.svg"
   width="50"
   height="35.632008"
   inkscape:version="0.92.4 (5da689c313, 2019-01-14)"><metadata
   id="metadata47"><rdf:RDF><cc:Work
       rdf:about=""><dc:format>image/svg+xml</dc:format><dc:type
         rdf:resource="http://purl.org/dc/dcmitype/StillImage" /><dc:title /></cc:Work></rdf:RDF></metadata><defs
   id="defs45" /><sodipodi:namedview
   pagecolor="#ffffff"
   bordercolor="#666666"
   borderopacity="1"
   objecttolerance="10"
   gridtolerance="10"
   guidetolerance="10"
   inkscape:pageopacity="0"
   inkscape:pageshadow="2"
   inkscape:window-width="1920"
   inkscape:window-height="1017"
   id="namedview43"
   showgrid="false"
   inkscape:zoom="2.1490493"
   inkscape:cx="-149.65035"
   inkscape:cy="32.841722"
   inkscape:window-x="-8"
   inkscape:window-y="-8"
   inkscape:window-maximized="1"
   inkscape:current-layer="Capa_1" />
<g
   id="g10"
   style="fill:#000;fill-opacity:1"
   transform="matrix(0.91060583,0,0,0.91060583,2.2765146e-4,-7.18468)">
	<path
   d="M 54.615,19.123 C 47.372,11.879 37.725,7.89 27.454,7.89 17.183,7.89 7.537,11.878 0.293,19.123 c -0.391,0.391 -0.391,1.023 0,1.414 0.391,0.391 1.023,0.391 1.414,0 6.866,-6.867 16.01,-10.648 25.747,-10.648 9.737,0 18.881,3.781 25.747,10.647 0.195,0.195 0.451,0.293 0.707,0.293 0.256,0 0.512,-0.098 0.707,-0.293 0.391,-0.39 0.391,-1.023 0,-1.413 z"
   id="path2"
   style="fill:#000;fill-opacity:1"
   inkscape:connector-curvature="0" />
	<path
   d="m 6.171,25 c -0.391,0.391 -0.391,1.023 0,1.414 0.195,0.195 0.451,0.293 0.707,0.293 0.256,0 0.512,-0.098 0.707,-0.293 10.955,-10.956 28.781,-10.956 39.737,0 0.391,0.391 1.023,0.391 1.414,0 0.391,-0.391 0.391,-1.023 0,-1.414 C 37.002,13.266 17.907,13.264 6.171,25 Z"
   id="path4"
   style="fill:#000;fill-opacity:1"
   inkscape:connector-curvature="0" />
	<path
   d="m 27.454,24.508 c -5.825,0 -11.295,2.263 -15.404,6.371 -0.391,0.391 -0.391,1.023 0,1.414 0.391,0.391 1.023,0.391 1.414,0 3.731,-3.73 8.699,-5.785 13.99,-5.785 5.291,0 10.259,2.055 13.99,5.785 0.195,0.195 0.451,0.293 0.707,0.293 0.256,0 0.512,-0.098 0.707,-0.293 0.391,-0.391 0.391,-1.023 0,-1.414 -4.108,-4.108 -9.579,-6.371 -15.404,-6.371 z"
   id="path6"
   style="fill:#000;fill-opacity:1"
   inkscape:connector-curvature="0" />
	<path
   d="m 27.454,33.916 c -3.612,0 -6.551,2.939 -6.551,6.552 0,3.613 2.939,6.552 6.551,6.552 3.613,0 6.552,-2.939 6.552,-6.552 0,-3.613 -2.939,-6.552 -6.552,-6.552 z m 0,11.103 c -2.51,0 -4.551,-2.042 -4.551,-4.552 0,-2.51 2.042,-4.552 4.551,-4.552 2.509,0 4.552,2.042 4.552,4.552 0,2.51 -2.042,4.552 -4.552,4.552 z"
   id="path8"
   style="fill:#000;fill-opacity:1"
   inkscape:connector-curvature="0" />
</g>
<g
   id="g12"
   transform="translate(1.082775e-7,-12.091998)">
</g>
<g
   id="g14"
   transform="translate(1.082775e-7,-12.091998)">
</g>
<g
   id="g16"
   transform="translate(1.082775e-7,-12.091998)">
</g>
<g
   id="g18"
   transform="translate(1.082775e-7,-12.091998)">
</g>
<g
   id="g20"
   transform="translate(1.082775e-7,-12.091998)">
</g>
<g
   id="g22"
   transform="translate(1.082775e-7,-12.091998)">
</g>
<g
   id="g24"
   transform="translate(1.082775e-7,-12.091998)">
</g>
<g
   id="g26"
   transform="translate(1.082775e-7,-12.091998)">
</g>
<g
   id="g28"
   transform="translate(1.082775e-7,-12.091998)">
</g>
<g
   id="g30"
   transform="translate(1.082775e-7,-12.091998)">
</g>
<g
   id="g32"
   transform="translate(1.082775e-7,-12.091998)">
</g>
<g
   id="g34"
   transform="translate(1.082775e-7,-12.091998)">
</g>
<g
   id="g36"
   transform="translate(1.082775e-7,-12.091998)">
</g>
<g
   id="g38"
   transform="translate(1.082775e-7,-12.091998)">
</g>
<g
   id="g40"
   transform="translate(1.082775e-7,-12.091998)">
</g>
</svg>