<svg width="18" height="18" viewBox="0 0 18 18" fill="none" xmlns="http://www.w3.org/2000/svg">
<path d="M9 3.36011C8.43335 3.36011 7.87943 3.52814 7.40829 3.84295C6.93714 4.15776 6.56993 4.60521 6.35308 5.12872C6.13624 5.65223 6.0795 6.22829 6.19005 6.78404C6.30059 7.3398 6.57346 7.85029 6.97413 8.25097C7.37481 8.65165 7.88531 8.92451 8.44106 9.03506C8.99682 9.1456 9.57287 9.08887 10.0964 8.87202C10.6199 8.65518 11.0673 8.28796 11.3822 7.81682C11.697 7.34567 11.865 6.79175 11.865 6.22511C11.865 5.46526 11.5631 4.73654 11.0259 4.19925C10.4886 3.66195 9.75984 3.36011 9 3.36011ZM9 8.09011C8.63113 8.09011 8.27055 7.98073 7.96386 7.7758C7.65716 7.57087 7.41812 7.2796 7.27696 6.93881C7.1358 6.59803 7.09887 6.22304 7.17083 5.86126C7.24279 5.49949 7.42042 5.16718 7.68124 4.90635C7.94207 4.64553 8.27438 4.4679 8.63615 4.39594C8.99793 4.32398 9.37292 4.36091 9.7137 4.50207C10.0545 4.64323 10.3458 4.88227 10.5507 5.18897C10.7556 5.49567 10.865 5.85625 10.865 6.22511C10.8637 6.71887 10.6666 7.19196 10.317 7.54063C9.96737 7.88931 9.49376 8.08511 9 8.08511V8.09011Z" fill="white"/>
<path d="M9 1C7.4426 1.0013 5.94899 1.61884 4.8454 2.71775C3.74182 3.81665 3.11793 5.30762 3.11 6.865C3.11 9.2 4.42 11.155 5.38 12.58L5.555 12.84C6.51014 14.2243 7.53479 15.5594 8.625 16.84L9.005 17.285L9.385 16.84C10.4751 15.5592 11.4997 14.2242 12.455 12.84L12.63 12.575C13.585 11.15 14.895 9.2 14.895 6.865C14.8871 5.30675 14.2625 3.81503 13.1578 2.71599C12.0532 1.61694 10.5583 0.99998 9 1ZM11.795 12L11.615 12.265C10.755 13.555 9.615 15 9 15.715C8.41 15 7.245 13.555 6.385 12.265L6.21 12C5.325 10.68 4.11 8.875 4.11 6.845C4.11 6.20284 4.23648 5.56696 4.48223 4.97368C4.72798 4.3804 5.08817 3.84133 5.54225 3.38725C5.99633 2.93317 6.5354 2.57297 7.12868 2.32723C7.72196 2.08148 8.35784 1.955 9 1.955C9.64216 1.955 10.278 2.08148 10.8713 2.32723C11.4646 2.57297 12.0037 2.93317 12.4578 3.38725C12.9118 3.84133 13.272 4.3804 13.5178 4.97368C13.7635 5.56696 13.89 6.20284 13.89 6.845C13.89 8.895 12.68 10.7 11.795 12Z" fill="white"/>
</svg>
