<svg width="17" height="17" viewBox="0 0 17 17" fill="none" xmlns="http://www.w3.org/2000/svg">
<path d="M14.9203 2.97649L14.8977 2.96232L12.0225 1.54565L8.91934 5.68303L10.3473 7.58703C10.3042 8.30332 10.0007 8.97914 9.494 9.48727C8.9873 9.99541 8.31234 10.3008 7.59617 10.346L7.58767 10.3467L5.68367 8.9187L1.5463 12.0219L2.96296 14.897L2.97713 14.9197C3.12659 15.1577 3.38725 15.3135 3.68475 15.3135H4.42921C10.4408 15.3135 15.3142 10.4402 15.3142 4.42857V3.68695V3.68411C15.3142 3.38661 15.1583 3.12595 14.9239 2.97861L14.9203 2.97649ZM14.2517 4.42857C14.2517 9.84449 9.84513 14.251 4.42921 14.251H3.82855L2.88859 12.3428L5.68367 10.2468L7.23988 11.4142H7.41696C8.47673 11.4128 9.49272 10.9913 10.2422 10.242C10.9916 9.49272 11.4133 8.4768 11.4148 7.41703V7.23995L10.2475 5.68374L12.3434 2.88865L14.2517 3.82861V4.42857Z" fill="white"/>
</svg>
